{
  "name": "Waitrose & Partners",
  "address": {
    "address": "72 Oldfield Road",
    "city": "Hampton",
    "region": "",
    "country": "GBR",
    "postcode": "TW12 2HQ",
    "latitude": 51.415542899999991,
    "longitude": -0.3735951
  },
  "updated": "2019-02-01T12:35:51.257Z"
}